{"data":[{"id":"007a5045-ae58-4007-a81f-755976ca42ff","displayName":null,"countryCode":"BR","stateCode":null,"score":4612,"isInternational":false,"name":"Belo Horizonte","placeId":"ChIJMyzPysqQpgARlznSOl55NVs","address":"","lat":-19.919052,"lng":-43.9386685,"createdOrigin":"luna","continent":{"id":"fc6a7084-9faa-40e1-a88e-a0e69dbb2cb7","name":"América do Sul","code":"SA"},"imageUrl":"https:\/\/destination-cdn-dev.onfly.com.br\/cities\/UDPI7jk0xALOZ4LbiH3V0Ly0Cu1yZ5OD.jpg"},{"id":"d3112079-3abd-4913-9634-0a4c54fc03fc","displayName":null,"countryCode":"BR","stateCode":"RJ","score":1220,"isInternational":false,"name":"Rio de Janeiro","placeId":"ChIJW6AIkVXemwARTtIvZ2xC3FA","address":"","lat":-22.9068467,"lng":-43.1728965,"createdOrigin":"luna","continent":{"id":"fc6a7084-9faa-40e1-a88e-a0e69dbb2cb7","name":"América do Sul","code":"SA"},"imageUrl":"https:\/\/destination-cdn-dev.onfly.com.br\/cities\/YCBcCRqIbYHNc4BSXpuHTiOP1pS1TqCD.jpg"},{"id":"f0eebbd1-1e97-43b2-978b-f4c16bc8cbb2","displayName":null,"countryCode":"BR","stateCode":"SP","score":1105,"isInternational":false,"name":"São Paulo","placeId":"ChIJ0WGkg4FEzpQRrlsz_whLqZs","address":"","lat":-23.5557714,"lng":-46.6395571,"createdOrigin":"luna","continent":{"id":"fc6a7084-9faa-40e1-a88e-a0e69dbb2cb7","name":"América do Sul","code":"SA"},"imageUrl":"https:\/\/destination-cdn-dev.onfly.com.br\/cities\/0tBII3uDdTBjXrIApbav0q3VkdIMPU9y.jpg"},{"id":"672f82a7-c636-430c-a17a-f285706c21d4","displayName":null,"countryCode":"BR","stateCode":"CE","score":1002,"isInternational":false,"name":"Fortaleza","placeId":"ChIJL1zB9iFPxwcRqid5ywZnbf0","address":"","lat":-3.7327203,"lng":-38.5270134,"createdOrigin":"luna","continent":{"id":"fc6a7084-9faa-40e1-a88e-a0e69dbb2cb7","name":"América do Sul","code":"SA"},"imageUrl":"https:\/\/destination-cdn-dev.onfly.com.br\/cities\/7Pbny6zphzenVySn8tdegjdToV5Xf2HI.jpg"},{"id":"86054c30-ae18-4ce3-8f57-48c985acf9a1","displayName":"Fortaleza","countryCode":"BR","stateCode":"CE","score":1000,"isInternational":false,"name":"Fortaleza","placeId":"ChIJP3hMRj9MxwcRyjdrDArGYUY","address":"Fortaleza - CE, Brasil","lat":-3.7327203,"lng":-38.5270134,"createdOrigin":"luna","continent":{"id":"fc6a7084-9faa-40e1-a88e-a0e69dbb2cb7","name":"América do Sul","code":"SA"},"imageUrl":"https:\/\/destination-cdn-dev.onfly.com.br\/cities\/default.jpeg"},{"id":"d2681fbc-015a-4a6b-aed4-203b104437cb","displayName":null,"countryCode":"BR","stateCode":"RN","score":180,"isInternational":false,"name":"São Paulo do Potengi","placeId":"ChIJxynM5IwvsgcRh3O8H_Q8vqI","address":"","lat":-5.8948671,"lng":-35.7628568,"createdOrigin":"luna","continent":{"id":"fc6a7084-9faa-40e1-a88e-a0e69dbb2cb7","name":"América do Sul","code":"SA"},"imageUrl":"https:\/\/destination-cdn-dev.onfly.com.br\/cities\/default.jpeg"},{"id":"c65a9973-892d-4b18-a245-e50742d3f38f","displayName":null,"countryCode":"BR","stateCode":"MG","score":36,"isInternational":false,"name":"Ipatinga","placeId":"ChIJ_5ooqef_rwAR9BHO0LyuBI8","address":"","lat":-19.46319,"lng":-42.5592797,"createdOrigin":"luna","continent":{"id":"fc6a7084-9faa-40e1-a88e-a0e69dbb2cb7","name":"América do Sul","code":"SA"},"imageUrl":"https:\/\/destination-cdn-dev.onfly.com.br\/cities\/Th5XPDxvVb0DArWXAI7dV2xA4Z3tcOlv.jpg"},{"id":"e9c2130d-1f5f-44c0-97f8-a9c774bd88fa","displayName":null,"countryCode":"BR","stateCode":"SP","score":22,"isInternational":false,"name":"Guarujá","placeId":"ChIJqz5zC0IAzpQRFBOscfZ3I_Q","address":"","lat":-23.9947975,"lng":-46.2568564,"createdOrigin":"luna","continent":{"id":"fc6a7084-9faa-40e1-a88e-a0e69dbb2cb7","name":"América do Sul","code":"SA"},"imageUrl":"https:\/\/destination-cdn-dev.onfly.com.br\/cities\/default.jpeg"},{"id":"a133713a-750a-4663-af48-cf39d08ce723","displayName":null,"countryCode":"BR","stateCode":"MG","score":20,"isInternational":false,"name":"Mariana","placeId":"ChIJXWBvUgZ0pAARpFAW9KH1M9g","address":"","lat":-20.3738681,"lng":-43.4162801,"createdOrigin":"luna","continent":{"id":"fc6a7084-9faa-40e1-a88e-a0e69dbb2cb7","name":"América do Sul","code":"SA"},"imageUrl":"https:\/\/destination-cdn-dev.onfly.com.br\/cities\/default.jpeg"},{"id":"84ad87d8-def7-49ad-827d-67300face646","displayName":null,"countryCode":"BR","stateCode":"SP","score":17,"isInternational":false,"name":"Campinas","placeId":"ChIJJWNL5x3GyJQRKsJ4IWo65Rc","address":"","lat":-22.9099384,"lng":-47.0626332,"createdOrigin":"luna","continent":{"id":"fc6a7084-9faa-40e1-a88e-a0e69dbb2cb7","name":"América do Sul","code":"SA"},"imageUrl":"https:\/\/destination-cdn-dev.onfly.com.br\/cities\/7D7PjWT8vNknQA8f1XoysmuePd0bQt3l.jpg"}],"meta":{"current_page":1,"from":1,"last_page":6632,"per_page":10,"to":10,"total":66318}}
